…
<img src="man/figures/README-unnamed-chunk-4-10.png" width="60%" height="60%" />

``` r

# purrr::map2(ks_idents_original_subsample, ks_idents_recluster_subsample, JaccardRainCloudPlot)
```

### How many stable cluster and percentage of cells for each K

``` r
## for one K, take ~20 seconds
AssignHighestJaccard(ks_idents_original_subsample$`30`, ks_idents_recluster_subsample$`30`)
#> # A tibble: 100 x 8
#>      `0`   `1`   `2`   `3`   `4`   `5`    `6`    `7`
#>    <dbl> <dbl> <dbl> <dbl> <dbl> <dbl>  <dbl>  <dbl>
#>  1 0.971 0.971 0.884 0.996 0.882 0.959 0.969  0.0566
#>  2 0.969 0.962 0.892 0.948 0.974 0.976 0.0403 0.933 
#>  3 0.956 0.968 0.860 0.996 0.942 1     0.885  0.867 
#>  4 0.708 0.938 0.930 0.993 0.831 0.952 0.885  0.0506
#>  5 0.966 0.976 0.879 0.982 0.849 0.942 0.897  0.0962
#>  6 0.962 0.876 0.862 0.993 0.636 0.924 0.897  0.0870
#>  7 0.968 0.965 0.883 0.993 0.862 0.967 0.968  0.0616
#>  8 0.975 0.916 0.901 0.997 0.752 0.943 0.931  1     
#>  9 0.976 0.942 0.920 0.992 0.787 0.976 0.926  0.0889
#> 10 0.972 0.976 0.901 0.982 0.854 0.976 0.897  0.0921
#> # ... with 90 more rows
…
